{
  "count": 141,
  "next": "http://3.235.214.44:8000/rent-store/movies/?page=2",
  "previous": null,
  "results": [
    {
      "uuid": "4c8e29c0-b931-4af5-be6b-357b821e6b10",
      "title": "The Shawshank Redemption",
      "pub_date": 1994,
      "duration": 142,
      "rating": 9.3,
      "description": "Chronicles the experiences of a formerly successful banker as a prisoner in the gloomy jailhouse of Shawshank after being found guilty of a crime he did not commit. The film portrays the man's unique way of dealing with his new, torturous life; along the way he befriends a number of fellow prisoners, most notably a wise long-term inmate named Red.                Written by\nJ-S-Golden",
      "poster_url": "https://images-na.ssl-images-amazon.com/images/M/MV5BODU4MjU4NjIwNl5BMl5BanBnXkFtZTgwMDU2MjEyMDE@._V1_SY500_CR0,0,336,500_AL_.jpg",
      "categories": ["Crime", "Drama"]
    },
    {
      "uuid": "2ac8c5d2-a9d4-4403-bc9e-2b40e4f399ac",
      "title": "The Godfather",
      "pub_date": 1972,
      "duration": 175,
      "rating": 9.2,
      "description": "When the aging head of a famous crime family decides to transfer his position to one of his subalterns, a series of unfortunate events start happening to the family, and a war begins between all the well-known families leading to insolence, deportation, murder and revenge, and ends with the favorable successor being finally chosen.                Written by\nJ. S. Golden",
      "poster_url": "https://images-na.ssl-images-amazon.com/images/M/MV5BZTRmNjQ1ZDYtNDgzMy00OGE0LWE4N2YtNTkzNWQ5ZDhlNGJmL2ltYWdlL2ltYWdlXkEyXkFqcGdeQXVyNjU0OTQ0OTY@._V1_SY500_CR0,0,352,500_AL_.jpg",
      "categories": ["Crime", "Drama"]
    },
    {
      "uuid": "ac79397f-801e-4d6b-a267-32ac19b20642",
      "title": "The Godfather: Part II",
      "pub_date": 1974,
      "duration": 202,
      "rating": 9.0,
      "description": "The continuing saga of the Corleone crime family tells the story of a young Vito Corleone growing up in Sicily and in 1910s New York; and follows Michael Corleone in the 1950s as he attempts to expand the family business into Las Vegas, Hollywood and Cuba.                Written by\nKeith Loh <loh@sfu.ca>",
      "poster_url": "https://images-na.ssl-images-amazon.com/images/M/MV5BMjZiNzIxNTQtNDc5Zi00YWY1LThkMTctMDgzYjY4YjI1YmQyL2ltYWdlL2ltYWdlXkEyXkFqcGdeQXVyNjU0OTQ0OTY@._V1_SY500_CR0,0,351,500_AL_.jpg",
      "categories": ["Crime", "Drama"]
    },
    {
      "uuid": "603e16e2-979b-4c23-ae5f-300c1d595468",
      "title": "The Dark Knight",
      "pub_date": 2008,
      "duration": 152,
      "rating": 9.0,
      "description": "Set within a year after the events of Batman Begins, Batman, Lieutenant James Gordon, and new district attorney Harvey Dent successfully begin to round up the criminals that plague Gotham City until a mysterious and sadistic criminal mastermind known only as the Joker appears in Gotham, creating a new wave of chaos. Batman's struggle against the Joker becomes deeply personal, forcing him to \"confront everything he believes\" and improve his technology to stop him. A love triangle develops between Bruce Wayne, Dent and Rachel Dawes.                Written by\nLeon Lombardi",
      "poster_url": "https://images-na.ssl-images-amazon.com/images/M/MV5BMTMxNTMwODM0NF5BMl5BanBnXkFtZTcwODAyMTk2Mw@@._V1_SY500_CR0,0,337,500_AL_.jpg",
      "categories": ["Action", "Crime", "Drama"]
    },
    {
      "uuid": "8fe1386c-5193-4b42-9373-9f56490d1813",
      "title": "12 Angry Men",
      "pub_date": 1957,
      "duration": 96,
      "rating": 8.9,
      "description": "The defense and the prosecution have rested and the jury is filing into the jury room to decide if a young man is guilty or innocent of murdering his father. What begins as an open-and-shut case of murder soon becomes a detective story that presents a succession of clues creating doubt, and a mini-drama of each of the jurors' prejudices and preconceptions about the trial, the accused, and each other. Based on the play, all of the action takes place on the stage of the jury room.                Written by\npjk <PETESID@VNET.IBM.COM>",
      "poster_url": "https://images-na.ssl-images-amazon.com/images/M/MV5BODQwOTc5MDM2N15BMl5BanBnXkFtZTcwODQxNTEzNA@@._V1_SY500_CR0,0,333,500_AL_.jpg",
      "categories": ["Crime", "Drama"]
    }
  ]
}
